…
## Q5: Pick a word and count the words that appears after and before it.

``` r
bigrams <- mtsamples %>%
  unnest_ngrams(output = bigram, input = transcription, n=2) %>%
  separate(bigram, into = c("word1", "word2"), sep = " ") %>%
  filter((word1 =="patient") | (word2 =="patient"))

bigrams %>%
  filter(word1 == "patient")%>%
  select(word1,word2) %>%
  count(word2, sort = TRUE)
```

    ## # A tibble: 588 × 2
    ##    word2         n
    ##    <chr>     <int>
    ##  1 was        6293
    ##  2 is         3332
    ##  3 has        1417
    ##  4 tolerated   994
    ##  5 had         888
    ##  6 will        616
    ##  7 denies      552
    ##  8 and         377
    ##  9 states      363
    ## 10 does        334
    ## # … with 578 more rows

``` r
bigrams %>%
  filter(word2 == "patient")%>%
  select(word1,word2)%>%
  count(word1, sort = TRUE)
```

    ## # A tibble: 269 × 2
    ##    word1         n
    ##    <chr>     <int>
    ##  1 the       20307
    ##  2 this        470
    ##  3 history     101
    ##  4 a            67
    ##  5 and          47
    ##  6 procedure    32
    ##  7 female       26
    ##  8 with         25
    ##  9 use          24
    ## 10 old          23
    ## # … with 259 more rows
…
